{
	"model": {
		"getter":"getFullyConnectedAutoencoder",
	    "getter_params":{
	    	"layer_size":[600,400,125],
		    "bottleneck_size":2,
		    "autoencoder_class":"Autoencoder",
		    "batch_norm": false
		}
	},
	"data": {
		"getter":"get_reuters_data"
	},
	"training":{
		"epochs": 3500,
		"batch_size": 50
	},
	"opt":{
		"class":"SGD",
		"params":{
			"lr":1,
			"momentum":0.3,
			"weight_decay":0
		}
	},
	"scheduler":{
		"class": "LambdaLR",
		"params":{
			"lr_lambda": "angular_reuters_lr_lambda"
		}
	}
}